{
  "integerAttribute" : {
    "description" : "This is a comment for integer attribute",
    "value" : 112
  },
  "stringAttrbiute" : {
    "description" : "This is a comment for String attribute",
    "value" : "Test"
  },
  "arrayListAttribute" : {
    "description" : "This is a array list attribute",
    "value" : ["a", "b", "c", "d", "e"]
  }
}